Predictive Modeling
…
tidy(lasso_fit) %>%
  filter(estimate != 0)

## # A tibble: 165 x 3
##    term        estimate penalty
##    <chr>          <dbl>   <dbl>
##  1 (Intercept)  193.          1
##  2 DP02_0002E   -12.7         1
##  3 DP02_0003E    -3.20        1
##  4 DP02_0005E   -12.3         1
##  5 DP02_0007E     0.134       1
##  6 DP02_0014E   -12.0         1
##  7 DP02_0020E    11.1         1
##  8 DP02_0024E    -6.50        1
##  9 DP02_0028E    -6.21        1
## 10 DP02_0029E     6.78        1
## # ... with 155 more rows
…
